…
```r
data %>% group_by(state) %>% summarize(Average.cases = mean(count)) %>% arrange(desc(Average.cases))
```

```
## # A tibble: 49 x 2
##    state         Average.cases
##    <chr>                 <dbl>
##  1 Connecticut           290. 
##  2 Massachusetts         202. 
##  3 Delaware              163. 
##  4 New Jersey            158. 
##  5 Rhode Island           85.0
##  6 New Hampshire          79.0
##  7 New York               76.3
##  8 Pennsylvania           71.2
##  9 Maryland               56.8
## 10 Maine                  41.5
## # ... with 39 more rows
```
…
### Task 11

Display the Georgia data in the console window.


```r
by_state$data[[10]]
```

```
## # A tibble: 2,544 x 9
##    county        fips count  year  prcp avtemp  size log10.size log10.cases
##    <chr>        <dbl> <dbl> <dbl> <dbl>  <dbl> <dbl>      <dbl>       <dbl>
##  1 Appling Cou~ 13001     0  2000  965.   18.6 17408       4.24           0
##  2 Atkinson Co~ 13003     0  2000 1055.   18.7  7610       3.88           0
##  3 Bacon County 13005     0  2000 1054.   18.8 10122       4.01           0
##  4 Baker County 13007     0  2000  963.   18.9  4053       3.61           0
##  5 Baldwin Cou~ 13009     0  2000  866.   17.3 44738       4.65           0
##  6 Banks County 13011     0  2000  993.   15.6 14504       4.16           0
##  7 Barrow Coun~ 13013     0  2000  979.   15.9 46561       4.67           0
##  8 Bartow Coun~ 13015     0  2000 1104.   15.6 76703       4.88           0
##  9 Ben Hill Co~ 13017     0  2000 1102.   18.4 17473       4.24           0
## 10 Berrien Cou~ 13019     0  2000 1083.   18.7 16250       4.21           0
## # ... with 2,534 more rows
```
…
